%YAML 1.1
%TAG !u! tag:unity3d.com,2011:
--- !u!1 &2393727536576042792
GameObject:
  m_ObjectHideFlags: 0
  m_CorrespondingSourceObject: {fileID: 0}
  m_PrefabInstance: {fileID: 0}
  m_PrefabAsset: {fileID: 0}
  serializedVersion: 6
  m_Component:
  - component: {fileID: 8363226873585888976}
  m_Layer: 0
  m_Name: Shelf
  m_TagString: Untagged
  m_Icon: {fileID: 0}
  m_NavMeshLayer: 0
  m_StaticEditorFlags: 0
  m_IsActive: 1
--- !u!4 &8363226873585888976
Transform:
  m_ObjectHideFlags: 0
  m_CorrespondingSourceObject: {fileID: 0}
  m_PrefabInstance: {fileID: 0}
  m_PrefabAsset: {fileID: 0}
  m_GameObject: {fileID: 2393727536576042792}
  m_LocalRotation: {x: 0, y: 0, z: 0, w: 1}
  m_LocalPosition: {x: -13.319964, y: 21.265724, z: -3.6269546}
  m_LocalScale: {x: 1, y: 1, z: 1}
  m_Children:
  - {fileID: 742410728913460846}
  m_Father: {fileID: 0}
  m_RootOrder: 0
  m_LocalEulerAnglesHint: {x: 0, y: 0, z: 0}
--- !u!1001 &742410728913585390
PrefabInstance:
  m_ObjectHideFlags: 0
  serializedVersion: 2
  m_Modification:
    m_TransformParent: {fileID: 8363226873585888976}
    m_Modifications:
    - target: {fileID: 100000, guid: 239b7fcdbe9da37489416fe706d53a2a, type: 3}
      propertyPath: m_Name
      value: shelf
      objectReference: {fileID: 0}
    - target: {fileID: 400000, guid: 239b7fcdbe9da37489416fe706d53a2a, type: 3}
      propertyPath: m_LocalPosition.x
      value: -0
      objectReference: {fileID: 0}
    - target: {fileID: 400000, guid: 239b7fcdbe9da37489416fe706d53a2a, type: 3}
      propertyPath: m_LocalPosition.y
      value: 0
      objectReference: {fileID: 0}
    - target: {fileID: 400000, guid: 239b7fcdbe9da37489416fe706d53a2a, type: 3}
      propertyPath: m_LocalPosition.z
      value: 0
      objectReference: {fileID: 0}
    - target: {fileID: 400000, guid: 239b7fcdbe9da37489416fe706d53a2a, type: 3}
      propertyPath: m_LocalRotation.x
      value: 0.000000081460335
      objectReference: {fileID: 0}
    - target: {fileID: 400000, guid: 239b7fcdbe9da37489416fe706d53a2a, type: 3}
      propertyPath: m_LocalRotation.y
      value: 0
      objectReference: {fileID: 0}
    - target: {fileID: 400000, guid: 239b7fcdbe9da37489416fe706d53a2a, type: 3}
      propertyPath: m_LocalRotation.z
      value: -0
      objectReference: {fileID: 0}
    - target: {fileID: 400000, guid: 239b7fcdbe9da37489416fe706d53a2a, type: 3}
      propertyPath: m_LocalRotation.w
      value: 1
      objectReference: {fileID: 0}
    - target: {fileID: 400000, guid: 239b7fcdbe9da37489416fe706d53a2a, type: 3}
      propertyPath: m_RootOrder
      value: 0
      objectReference: {fileID: 0}
    - target: {fileID: 400000, guid: 239b7fcdbe9da37489416fe706d53a2a, type: 3}
      propertyPath: m_LocalEulerAnglesHint.x
      value: 0
      objectReference: {fileID: 0}
    - target: {fileID: 400000, guid: 239b7fcdbe9da37489416fe706d53a2a, type: 3}
      propertyPath: m_LocalEulerAnglesHint.y
      value: 0
      objectReference: {fileID: 0}
    - target: {fileID: 400000, guid: 239b7fcdbe9da37489416fe706d53a2a, type: 3}
      propertyPath: m_LocalEulerAnglesHint.z
      value: 0
      objectReference: {fileID: 0}
    - target: {fileID: 2300000, guid: 239b7fcdbe9da37489416fe706d53a2a, type: 3}
      propertyPath: m_Materials.Array.data[0]
      value: 
      objectReference: {fileID: 2100000, guid: fec38052ac27bb947b7478fcc0834936, type: 2}
    m_RemovedComponents: []
  m_SourcePrefab: {fileID: 100100000, guid: 239b7fcdbe9da37489416fe706d53a2a, type: 3}
--- !u!4 &742410728913460846 stripped
Transform:
  m_CorrespondingSourceObject: {fileID: 400000, guid: 239b7fcdbe9da37489416fe706d53a2a,
    type: 3}
  m_PrefabInstance: {fileID: 742410728913585390}
  m_PrefabAsset: {fileID: 0}
